# This file uses centimeters as units for non-parametric coordinates.

mtllib ShelfTier2.mtl
g default
v -1.634625 -0.760386 0.427236
v 1.613849 -0.760386 0.427236
v -1.634625 -0.760386 1.670345
v 1.613849 -0.760386 1.670345
v -1.634625 0.356633 1.670345
v 1.613849 0.356633 1.670345
v -1.634625 0.356633 0.427236
v 1.613849 0.356633 0.427236
v 1.052159 -2.569718 0.419888
v 1.925352 -2.569718 0.419888
v 1.052161 0.375868 0.419888
v 1.925353 0.375868 0.419888
v 1.052159 0.375868 -0.419888
v 1.925352 0.375868 -0.419888
v 1.052159 -2.569718 -0.419888
v 1.925352 -2.569718 -0.419888
v -1.948318 -2.628422 1.948314
v 1.948310 -2.628422 1.948314
v -1.948317 -2.206861 1.948314
v 1.948311 -2.206861 1.948314
v -1.948318 -2.206861 -1.948314
v 1.948310 -2.206861 -1.948314
v -1.948318 -2.628422 -1.948314
v 1.948310 -2.628422 -1.948314
v -1.948313 0.375998 1.948314
v 1.948315 0.375998 1.948314
v -1.948313 1.245400 1.948314
v 1.948316 1.245400 1.948314
v -1.948313 1.245400 -1.948314
v 1.948316 1.245400 -1.948314
v -1.948313 0.375998 -1.948314
v 1.948315 0.375998 -1.948314
v -1.181730 1.543542 0.430478
v -0.284943 1.384734 0.234795
v -1.151158 1.612093 0.514948
v -0.254371 1.453286 0.319265
v -1.151158 2.446056 -0.161857
v -0.254371 2.287248 -0.357540
v -1.181730 2.377504 -0.246327
v -0.284943 2.218696 -0.442010
v 1.115128 1.543542 0.430478
v 0.218341 1.384734 0.234795
v 0.187770 1.453286 0.319265
v 1.084557 1.612093 0.514948
v 0.187769 2.287248 -0.357540
v 1.084556 2.446056 -0.161857
v 0.218343 2.218696 -0.442010
v 1.115130 2.377504 -0.246327
v -0.197093 1.335395 0.173999
v 0.104095 1.335395 0.173999
v -0.197095 1.376795 0.225013
v 0.104092 1.376795 0.225013
v -0.197095 2.210757 -0.451793
v 0.104092 2.210757 -0.451793
v -0.197095 2.169357 -0.502806
v 0.104092 2.169357 -0.502806
v -1.094234 2.393311 -0.137516
v -0.253558 2.243461 -0.322161
v -1.094234 1.631925 0.480389
v -0.253558 1.482076 0.295744
v -1.067130 1.658254 0.512831
v -0.205591 1.584658 0.422146
v -1.067130 2.419639 -0.105074
v -0.205591 2.346044 -0.195759
v 1.026175 2.391786 -0.139395
v 0.187298 2.242649 -0.323161
v 0.187298 1.481264 0.294744
v 1.026175 1.630401 0.478510
v 0.131828 1.583847 0.421147
v 0.960348 1.656729 0.510952
v 0.131828 2.345232 -0.196759
v 0.960348 2.418114 -0.106953
v -0.096638 2.261509 -0.299922
v -0.196388 2.166754 -0.416681
v -0.196388 1.405368 0.201224
v -0.096638 1.500124 0.317983
v 0.024867 1.499160 0.316795
v 0.024867 2.260545 -0.301111
v 0.101968 2.165979 -0.417635
v 0.101968 1.404594 0.200270
v -0.034761 1.446229 0.251573
v -0.034761 2.207614 -0.366332
v -0.034602 2.165282 -0.418494
v -0.034602 1.403897 0.199412
v -1.949396 -0.971233 1.948314
v 1.947233 -0.971233 1.948314
v -1.949394 -0.772267 1.948314
v 1.947234 -0.772267 1.948314
v -1.949396 -0.772267 -1.948314
v 1.947233 -0.772267 -1.948314
v -1.949396 -0.971233 -1.948314
v 1.947233 -0.971233 -1.948314
v -1.926797 -2.569718 0.419888
v -1.053605 -2.569718 0.419888
v -1.926796 0.375868 0.419888
v -1.053603 0.375868 0.419888
v -1.926797 0.375868 -0.419888
v -1.053605 0.375868 -0.419888
v -1.926797 -2.569718 -0.419888
v -1.053605 -2.569718 -0.419888
vt 0.164343 0.350704
vt 0.418859 0.350704
vt 0.418859 0.513355
vt 0.164343 0.513355
vt 0.418859 0.675358
vt 0.164343 0.675358
vt 0.164343 0.675358
vt 0.418859 0.675358
vt 0.418859 0.837586
vt 0.164343 0.837586
vt 0.164343 0.997867
vt 0.418859 0.997867
vt 0.418859 0.837586
vt 0.164343 0.837586
vt 0.581453 0.513355
vt 0.581453 0.675358
vt 0.002339 0.675358
vt 0.002339 0.513355
vt 0.154564 0.029123
vt 0.225163 0.029123
vt 0.225163 0.278213
vt 0.154564 0.278213
vt 0.052362 0.083110
vt 0.129125 0.083110
vt 0.129125 0.151660
vt 0.052362 0.151660
vt 0.154564 0.278212
vt 0.225163 0.278212
vt 0.225163 0.029123
vt 0.154564 0.029123
vt 0.052362 0.151660
vt 0.129125 0.151660
vt 0.129125 0.083110
vt 0.052362 0.083110
vt 0.154564 0.029123
vt 0.225163 0.029123
vt 0.225163 0.278212
vt 0.154564 0.278212
vt 0.225163 0.029123
vt 0.154564 0.029123
vt 0.154564 0.278212
vt 0.225163 0.278212
vt 0.026072 0.024159
vt 0.353656 0.024159
vt 0.353656 0.059808
vt 0.026072 0.059808
vt 0.366221 0.018399
vt 0.693805 0.018399
vt 0.693805 0.345983
vt 0.366221 0.345983
vt 0.026072 0.059808
vt 0.353656 0.059808
vt 0.353656 0.024159
vt 0.026072 0.024159
vt 0.366221 0.345983
vt 0.693805 0.345983
vt 0.693805 0.018399
vt 0.366221 0.018399
vt 0.026072 0.024159
vt 0.353656 0.024159
vt 0.353656 0.059807
vt 0.026072 0.059807
vt 0.353656 0.024159
vt 0.026072 0.024159
vt 0.026072 0.059807
vt 0.353656 0.059807
vt 0.701402 0.016138
vt 0.973986 0.016138
vt 0.973986 0.076924
vt 0.701402 0.076924
vt 0.973986 0.349508
vt 0.701402 0.349508
vt 0.701402 0.076924
vt 0.973986 0.076924
vt 0.973986 0.016139
vt 0.701402 0.016139
vt 0.366221 0.345983
vt 0.693805 0.345983
vt 0.693805 0.018399
vt 0.366221 0.018399
vt 0.701402 0.016138
vt 0.973985 0.016138
vt 0.973985 0.076924
vt 0.701402 0.076924
vt 0.973985 0.016138
vt 0.701402 0.016138
vt 0.701402 0.076924
vt 0.973985 0.076924
vt 0.079754 0.355831
vt 0.069508 0.394282
vt 0.077187 0.393988
vt 0.087434 0.355538
vt 0.054805 0.360779
vt 0.114449 0.341425
vt 0.114449 0.443060
vt 0.054805 0.462413
vt 0.087647 0.355495
vt 0.077400 0.393946
vt 0.069721 0.394239
vt 0.079967 0.355788
vt 0.156180 0.762813
vt 0.156273 0.852603
vt 0.003268 0.852761
vt 0.003175 0.762971
vt 0.111169 0.422132
vt 0.065961 0.375145
vt 0.060319 0.379007
vt 0.105526 0.425994
vt 0.097663 0.445491
vt 0.104866 0.442812
vt 0.080635 0.411248
vt 0.073431 0.413928
vt 0.114992 0.360779
vt 0.114992 0.462413
vt 0.055349 0.443060
vt 0.055349 0.341425
vt 0.105079 0.442769
vt 0.097876 0.445449
vt 0.073644 0.413885
vt 0.080848 0.411205
vt 0.156417 0.999150
vt 0.003412 0.999308
vt 0.003320 0.903152
vt 0.156325 0.902994
vt 0.111169 0.422132
vt 0.105526 0.425994
vt 0.060319 0.379007
vt 0.065961 0.375145
vt 0.064837 0.398780
vt 0.067185 0.410538
vt 0.071679 0.409640
vt 0.069330 0.397883
vt 0.029752 0.332103
vt 0.049783 0.332103
vt 0.049783 0.433738
vt 0.029752 0.433738
vt 0.069544 0.397840
vt 0.071892 0.409597
vt 0.067398 0.410495
vt 0.065049 0.398738
vt 0.156283 0.862581
vt 0.156314 0.892737
vt 0.003309 0.892895
vt 0.003278 0.862738
vt 0.797456 0.698830
vt 0.877343 0.672737
vt 0.877343 0.540158
vt 0.797456 0.566251
vt 0.583560 0.555624
vt 0.664569 0.529230
vt 0.670435 0.557818
vt 0.586327 0.560559
vt 0.670799 0.691072
vt 0.586360 0.700323
vt 0.586327 0.560559
vt 0.670435 0.557818
vt 0.664569 0.529230
vt 0.583560 0.555624
vt 0.789305 0.700043
vt 0.795888 0.696285
vt 0.795888 0.555343
vt 0.789305 0.560278
vt 0.998953 0.698564
vt 0.998953 0.565986
vt 0.919237 0.540017
vt 0.919237 0.672596
vt 0.795888 0.555343
vt 0.789305 0.560279
vt 0.715313 0.557585
vt 0.716793 0.528997
vt 0.789305 0.700043
vt 0.714603 0.688494
vt 0.789305 0.560279
vt 0.795888 0.555343
vt 0.716793 0.528997
vt 0.715313 0.557585
vt 0.789305 0.700043
vt 0.789305 0.560278
vt 0.795888 0.555343
vt 0.795888 0.696285
vt 0.683601 0.531403
vt 0.683530 0.677688
vt 0.882777 0.659379
vt 0.882777 0.526801
vt 0.673576 0.513802
vt 0.683601 0.531403
vt 0.673576 0.513802
vt 0.689775 0.521605
vt 0.689892 0.513802
vt 0.898150 0.659123
vt 0.898150 0.526545
vt 0.689892 0.513802
vt 0.689775 0.521605
vt 0.689725 0.667800
vt 0.695695 0.677511
vt 0.695826 0.531226
vt 0.703666 0.513802
vt 0.695826 0.531226
vt 0.911129 0.526666
vt 0.911129 0.659245
vt 0.703666 0.513802
vt 0.026072 0.024159
vt 0.353656 0.024159
vt 0.353656 0.059808
vt 0.026072 0.059808
vt 0.366221 0.018399
vt 0.693805 0.018399
vt 0.693805 0.345983
vt 0.366221 0.345983
vt 0.026072 0.059808
vt 0.353656 0.059808
vt 0.353656 0.024159
vt 0.026072 0.024159
vt 0.366221 0.345983
vt 0.693805 0.345983
vt 0.693805 0.018399
vt 0.366221 0.018399
vt 0.026072 0.024159
vt 0.353656 0.024159
vt 0.353656 0.059807
vt 0.026072 0.059807
vt 0.353656 0.024159
vt 0.026072 0.024159
vt 0.026072 0.059807
vt 0.353656 0.059807
vt 0.154564 0.029123
vt 0.225163 0.029123
vt 0.225163 0.278213
vt 0.154564 0.278213
vt 0.052362 0.083110
vt 0.129125 0.083110
vt 0.129125 0.151660
vt 0.052362 0.151660
vt 0.154564 0.278212
vt 0.225163 0.278212
vt 0.225163 0.029123
vt 0.154564 0.029123
vt 0.052362 0.151660
vt 0.129125 0.151660
vt 0.129125 0.083110
vt 0.052362 0.083110
vt 0.154564 0.029123
vt 0.225163 0.029123
vt 0.225163 0.278212
vt 0.154564 0.278212
vt 0.225163 0.029123
vt 0.154564 0.029123
vt 0.154564 0.278212
vt 0.225163 0.278212
vn 0.000000 -1.000000 0.000000
vn 0.000000 -1.000000 0.000000
vn 0.000000 -1.000000 0.000000
vn 0.000000 -1.000000 0.000000
vn 0.000000 0.000000 1.000000
vn 0.000000 0.000000 1.000000
vn 0.000000 0.000000 1.000000
vn 0.000000 0.000000 1.000000
vn 0.000000 1.000000 0.000000
vn 0.000000 1.000000 0.000000
vn 0.000000 1.000000 0.000000
vn 0.000000 1.000000 0.000000
vn 0.000000 0.000000 -1.000000
vn 0.000000 0.000000 -1.000000
vn 0.000000 0.000000 -1.000000
vn 0.000000 0.000000 -1.000000
vn 1.000000 0.000000 0.000000
vn 1.000000 0.000000 0.000000
vn 1.000000 0.000000 0.000000
vn 1.000000 0.000000 0.000000
vn -1.000000 0.000000 0.000000
vn -1.000000 0.000000 0.000000
vn -1.000000 0.000000 0.000000
vn -1.000000 0.000000 0.000000
vn 0.000000 0.000000 1.000000
vn 0.000000 0.000000 1.000000
vn 0.000000 0.000000 1.000000
vn 0.000000 0.000000 1.000000
vn 0.000000 1.000000 -0.000000
vn 0.000000 1.000000 -0.000000
vn 0.000000 1.000000 -0.000000
vn 0.000000 1.000000 -0.000000
vn 0.000000 0.000000 -1.000000
vn 0.000000 0.000000 -1.000000
vn 0.000000 0.000000 -1.000000
vn 0.000000 0.000000 -1.000000
vn 0.000000 -1.000000 0.000000
vn 0.000000 -1.000000 0.000000
vn 0.000000 -1.000000 0.000000
vn 0.000000 -1.000000 0.000000
vn 1.000000 -0.000000 -0.000001
vn 1.000000 -0.000000 -0.000001
vn 1.000000 -0.000000 -0.000001
vn 1.000000 -0.000000 -0.000001
vn -1.000000 0.000000 0.000001
vn -1.000000 0.000000 0.000001
vn -1.000000 0.000000 0.000001
vn -1.000000 0.000000 0.000001
vn 0.000000 0.000000 1.000000
vn 0.000000 0.000000 1.000000
vn 0.000000 0.000000 1.000000
vn 0.000000 0.000000 1.000000
vn 0.000000 1.000000 0.000000
vn 0.000000 1.000000 0.000000
vn 0.000000 1.000000 0.000000
vn 0.000000 1.000000 0.000000
vn 0.000000 0.000000 -1.000000
vn 0.000000 0.000000 -1.000000
vn 0.000000 0.000000 -1.000000
vn 0.000000 0.000000 -1.000000
vn 0.000000 -1.000000 0.000000
vn 0.000000 -1.000000 0.000000
vn 0.000000 -1.000000 0.000000
vn 0.000000 -1.000000 0.000000
vn 1.000000 -0.000002 -0.000000
vn 1.000000 -0.000002 -0.000000
vn 1.000000 -0.000002 -0.000000
vn 1.000000 -0.000002 -0.000000
vn -1.000000 0.000002 0.000000
vn -1.000000 0.000002 0.000000
vn -1.000000 0.000002 0.000000
vn -1.000000 0.000002 0.000000
vn 0.000000 0.000000 1.000000
vn 0.000000 0.000000 1.000000
vn 0.000000 0.000000 1.000000
vn 0.000000 0.000000 1.000000
vn 0.000000 1.000000 0.000000
vn 0.000000 1.000000 0.000000
vn 0.000000 1.000000 0.000000
vn 0.000000 1.000000 0.000000
vn 0.000000 0.000000 -1.000000
vn 0.000000 0.000000 -1.000000
vn 0.000000 0.000000 -1.000000
vn 0.000000 0.000000 -1.000000
vn 0.000000 -1.000000 0.000000
vn 0.000000 -1.000000 0.000000
vn 0.000000 -1.000000 0.000000
vn 0.000000 -1.000000 0.000000
vn 1.000000 -0.000000 0.000000
vn 1.000000 -0.000000 0.000000
vn 1.000000 -0.000000 0.000000
vn 1.000000 -0.000000 0.000000
vn -1.000000 0.000001 0.000000
vn -1.000000 0.000001 0.000000
vn -1.000000 0.000001 0.000000
vn -1.000000 0.000001 0.000000
vn -0.000000 -0.776474 0.630149
vn -0.000000 -0.776474 0.630149
vn -0.000000 -0.776474 0.630149
vn -0.000000 -0.776474 0.630149
vn 0.270541 0.606651 0.747518
vn 0.270541 0.606651 0.747518
vn 0.270541 0.606651 0.747518
vn 0.270541 0.606651 0.747518
vn 0.000000 0.776473 -0.630151
vn -0.000000 0.776473 -0.630151
vn -0.000000 0.776473 -0.630151
vn 0.000000 0.776473 -0.630151
vn -0.270541 -0.606651 -0.747518
vn -0.318048 -0.597429 -0.736154
vn -0.318048 -0.597429 -0.736154
vn -0.270541 -0.606651 -0.747518
vn -0.962709 0.170481 0.210067
vn -0.962709 0.170481 0.210067
vn -0.962709 0.170481 0.210067
vn -0.962709 0.170481 0.210067
vn 0.000000 -0.776475 0.630149
vn 0.000000 -0.776475 0.630149
vn 0.000000 -0.776475 0.630149
vn 0.000000 -0.776475 0.630149
vn -0.270541 0.606651 0.747518
vn -0.270541 0.606651 0.747518
vn -0.270541 0.606651 0.747518
vn -0.270541 0.606651 0.747518
vn -0.000000 0.776472 -0.630151
vn -0.000000 0.776472 -0.630151
vn 0.000000 0.776472 -0.630151
vn 0.000000 0.776472 -0.630151
vn 0.270541 -0.606651 -0.747517
vn 0.270541 -0.606651 -0.747517
vn 0.310554 -0.598993 -0.738081
vn 0.310554 -0.598993 -0.738081
vn 0.962705 0.170490 0.210078
vn 0.962705 0.170490 0.210078
vn 0.962705 0.170490 0.210078
vn 0.962705 0.170490 0.210078
vn -0.000000 -0.776474 0.630149
vn 0.000000 -0.776474 0.630149
vn 0.000000 -0.776474 0.630149
vn -0.000000 -0.776474 0.630149
vn 0.000000 0.630150 0.776473
vn 0.000000 0.630150 0.776473
vn 0.000000 0.630150 0.776473
vn 0.000000 0.630150 0.776473
vn -0.000002 0.776473 -0.630151
vn 0.000001 0.776473 -0.630151
vn 0.000001 0.776473 -0.630151
vn -0.000001 0.776473 -0.630151
vn 0.000000 -0.630150 -0.776473
vn 0.000000 -0.630150 -0.776473
vn 0.000000 -0.630150 -0.776473
vn 0.000000 -0.630150 -0.776473
vn 0.904378 0.268906 0.331347
vn 0.904378 0.268906 0.331347
vn 0.904378 0.268906 0.331347
vn 0.904378 0.268906 0.331347
vn -0.665362 -0.470421 -0.579653
vn -0.665362 -0.470421 -0.579653
vn 0.565314 -0.519795 -0.640494
vn 0.565314 -0.519795 -0.640494
vn -0.823330 0.357649 0.440698
vn -0.823330 0.357649 0.440698
vn -0.823330 0.357649 0.440698
vn -0.823330 0.357649 0.440698
vn -0.272187 -0.606358 -0.747157
vn -0.371739 -0.584992 -0.720829
vn -0.371739 -0.584992 -0.720829
vn -0.272187 -0.606358 -0.747157
vn -0.000000 -0.776473 0.630151
vn 0.000000 -0.776473 0.630150
vn 0.000000 -0.776473 0.630151
vn -0.000000 -0.776473 0.630151
vn 0.134332 0.624439 0.769436
vn 0.250336 0.610085 0.751750
vn 0.250336 0.610085 0.751750
vn 0.134332 0.624439 0.769436
vn -0.000000 0.776474 -0.630150
vn -0.000000 0.776474 -0.630150
vn 0.000000 0.776474 -0.630150
vn -0.000000 0.776474 -0.630150
vn -0.838938 0.342945 0.422578
vn -0.838938 0.342945 0.422578
vn -0.838938 0.342945 0.422578
vn -0.838938 0.342945 0.422578
vn 0.271526 -0.606476 -0.747302
vn 0.271526 -0.606476 -0.747302
vn 0.361504 -0.587533 -0.723961
vn 0.361504 -0.587533 -0.723961
vn 0.000000 -0.776474 0.630149
vn 0.000000 -0.776474 0.630149
vn 0.000000 -0.776474 0.630149
vn 0.000000 -0.776474 0.630149
vn -0.138256 0.624099 0.769017
vn -0.138256 0.624099 0.769017
vn -0.258230 0.608778 0.750138
vn -0.258230 0.608778 0.750138
vn 0.000000 0.776473 -0.630150
vn 0.000000 0.776473 -0.630150
vn 0.000001 0.776473 -0.630150
vn 0.000000 0.776473 -0.630150
vn 0.535883 0.532030 0.655570
vn 0.535883 0.532030 0.655570
vn 0.535883 0.532030 0.655570
vn 0.535883 0.532030 0.655570
vn 0.789404 0.386833 0.476657
vn 0.789404 0.386833 0.476657
vn -0.492980 -0.548256 -0.675564
vn -0.492980 -0.548256 -0.675564
vn 0.000001 -0.776473 0.630150
vn 0.000001 -0.776473 0.630150
vn 0.000001 0.776473 -0.630150
vn 0.000000 0.776473 -0.630150
vn -0.000000 0.776474 -0.630149
vn -0.000000 0.776474 -0.630149
vn -0.004121 -0.630145 -0.776467
vn -0.004121 -0.630145 -0.776467
vn 0.000000 -0.776473 0.630150
vn 0.000000 -0.776473 0.630150
vn 0.012595 0.630100 0.776412
vn 0.012594 0.630100 0.776412
vn -0.795085 0.382185 0.470929
vn -0.795085 0.382185 0.470929
vn 0.000001 0.776474 -0.630150
vn 0.000001 0.776473 -0.630150
vn 0.484130 -0.551379 -0.679411
vn 0.484130 -0.551379 -0.679411
vn 0.000001 -0.776474 0.630150
vn 0.000001 -0.776473 0.630150
vn 0.000000 0.000000 1.000000
vn 0.000000 0.000000 1.000000
vn 0.000000 0.000000 1.000000
vn 0.000000 0.000000 1.000000
vn 0.000000 1.000000 -0.000000
vn 0.000000 1.000000 -0.000000
vn 0.000000 1.000000 -0.000000
vn 0.000000 1.000000 -0.000000
vn 0.000000 0.000000 -1.000000
vn 0.000000 0.000000 -1.000000
vn 0.000000 0.000000 -1.000000
vn 0.000000 0.000000 -1.000000
vn 0.000000 -1.000000 0.000000
vn 0.000000 -1.000000 0.000000
vn 0.000000 -1.000000 0.000000
vn 0.000000 -1.000000 0.000000
vn 1.000000 -0.000004 -0.000000
vn 1.000000 -0.000004 -0.000000
vn 1.000000 -0.000004 -0.000000
vn 1.000000 -0.000004 -0.000000
vn -1.000000 0.000004 0.000000
vn -1.000000 0.000004 0.000000
vn -1.000000 0.000004 0.000000
vn -1.000000 0.000004 0.000000
vn 0.000000 0.000000 1.000000
vn 0.000000 0.000000 1.000000
vn 0.000000 0.000000 1.000000
vn 0.000000 0.000000 1.000000
vn 0.000000 1.000000 -0.000000
vn 0.000000 1.000000 -0.000000
vn 0.000000 1.000000 -0.000000
vn 0.000000 1.000000 -0.000000
vn 0.000000 0.000000 -1.000000
vn 0.000000 0.000000 -1.000000
vn 0.000000 0.000000 -1.000000
vn 0.000000 0.000000 -1.000000
vn 0.000000 -1.000000 0.000000
vn 0.000000 -1.000000 0.000000
vn 0.000000 -1.000000 0.000000
vn 0.000000 -1.000000 0.000000
vn 1.000000 -0.000000 -0.000001
vn 1.000000 -0.000000 -0.000001
vn 1.000000 -0.000000 -0.000001
vn 1.000000 -0.000000 -0.000001
vn -1.000000 0.000000 0.000001
vn -1.000000 0.000000 0.000001
vn -1.000000 0.000000 0.000001
vn -1.000000 0.000000 0.000001
s off
g polySurface103
usemtl initialShadingGroup
f 1/1/1 2/2/2 4/3/3 3/4/4
f 3/4/5 4/3/6 6/5/7 5/6/8
f 5/7/9 6/8/10 8/9/11 7/10/12
f 7/11/13 8/12/14 2/13/15 1/14/16
f 2/15/17 8/16/18 6/5/19 4/3/20
f 7/17/21 1/18/22 3/4/23 5/6/24
f 9/19/25 10/20/26 12/21/27 11/22/28
f 11/23/29 12/24/30 14/25/31 13/26/32
f 13/27/33 14/28/34 16/29/35 15/30/36
f 15/31/37 16/32/38 10/33/39 9/34/40
f 10/35/41 16/36/42 14/37/43 12/38/44
f 15/39/45 9/40/46 11/41/47 13/42/48
f 17/43/49 18/44/50 20/45/51 19/46/52
f 19/47/53 20/48/54 22/49/55 21/50/56
f 21/51/57 22/52/58 24/53/59 23/54/60
f 23/55/61 24/56/62 18/57/63 17/58/64
f 18/59/65 24/60/66 22/61/67 20/62/68
f 23/63/69 17/64/70 19/65/71 21/66/72
f 25/67/73 26/68/74 28/69/75 27/70/76
f 27/70/77 28/69/78 30/71/79 29/72/80
f 29/73/81 30/74/82 32/75/83 31/76/84
f 31/77/85 32/78/86 26/79/87 25/80/88
f 26/81/89 32/82/90 30/83/91 28/84/92
f 31/85/93 25/86/94 27/87/95 29/88/96
s 1
f 33/89/97 34/90/98 36/91/99 35/92/100
s off
f 35/93/101 36/94/102 38/95/103 37/96/104
s 2
f 37/97/105 38/98/106 40/99/107 39/100/108
s 3
f 39/101/109 40/102/110 34/103/111 33/104/112
s off
f 39/105/113 33/106/114 35/107/115 37/108/116
s 1
f 41/109/117 44/110/118 43/111/119 42/112/120
s off
f 44/113/121 46/114/122 45/115/123 43/116/124
s 2
f 46/117/125 48/118/126 47/119/127 45/120/128
s 6
f 48/121/129 41/122/130 42/123/131 47/124/132
s off
f 48/125/133 46/126/134 44/127/135 41/128/136
s 1
f 49/129/137 50/130/138 52/131/139 51/132/140
s off
f 51/133/141 52/134/142 54/135/143 53/136/144
s 2
f 53/137/145 54/138/146 56/139/147 55/140/148
s off
f 55/141/149 56/142/150 50/143/151 49/144/152
f 38/98/153 36/91/154 51/132/155 53/137/156
s 3
f 34/103/111 40/102/110 55/141/157 49/144/158
s 1
f 36/91/99 34/90/98 49/129/137 51/132/140
s 2
f 40/99/107 38/98/106 53/137/145 55/140/148
f 45/120/128 47/119/127 56/139/147 54/138/146
s 6
f 47/124/132 42/123/131 50/143/159 56/142/160
s off
f 43/116/161 45/115/162 54/135/163 52/134/164
s 1
f 42/112/120 43/111/119 52/131/139 50/130/138
s 7
f 57/145/165 58/146/166 60/147/167 59/148/168
s 8
f 59/149/169 60/150/170 62/151/171 61/152/172
s 9
f 61/152/173 62/151/174 64/153/175 63/154/176
s 10
f 63/155/177 64/156/178 58/157/179 57/158/180
s off
f 63/159/181 57/160/182 59/161/183 61/162/184
s 7
f 65/163/185 68/164/186 67/165/187 66/166/188
s 8
f 68/167/189 70/168/190 69/169/191 67/170/192
s 9
f 70/168/193 72/171/194 71/172/195 69/169/196
s 10
f 72/173/197 65/174/198 66/175/199 71/176/200
s off
f 72/177/201 70/178/202 68/179/203 65/180/204
s 9
f 64/153/175 62/151/174 76/181/205 73/182/206
s 7
f 60/147/167 58/146/166 74/183/207 75/184/208
s 8
f 62/151/171 60/150/170 75/185/209 76/181/210
s 10
f 58/157/179 64/156/178 73/186/211 74/187/212
f 74/187/212 73/186/211 82/188/213 83/189/214
s 7
f 75/184/208 74/183/207 83/190/215 84/191/216
s 8
f 76/181/210 75/185/209 84/192/217 81/193/218
s 9
f 73/182/206 76/181/205 81/193/219 82/194/220
f 78/195/221 77/196/222 69/169/196 71/172/195
s 10
f 79/197/223 78/198/224 71/176/200 66/175/199
s 7
f 80/199/225 79/200/226 66/166/188 67/165/187
s 8
f 77/196/227 80/201/228 67/170/192 69/169/191
s 9
f 82/194/220 81/193/219 77/196/222 78/195/221
s 10
f 83/189/214 82/188/213 78/198/224 79/197/223
s 7
f 84/191/216 83/190/215 79/200/226 80/199/225
s 8
f 81/193/218 84/192/217 80/201/228 77/196/227
s off
f 85/202/229 86/203/230 88/204/231 87/205/232
f 87/206/233 88/207/234 90/208/235 89/209/236
f 89/210/237 90/211/238 92/212/239 91/213/240
f 91/214/241 92/215/242 86/216/243 85/217/244
f 86/218/245 92/219/246 90/220/247 88/221/248
f 91/222/249 85/223/250 87/224/251 89/225/252
f 93/226/253 94/227/254 96/228/255 95/229/256
f 95/230/257 96/231/258 98/232/259 97/233/260
f 97/234/261 98/235/262 100/236/263 99/237/264
f 99/238/265 100/239/266 94/240/267 93/241/268
f 94/242/269 100/243/270 98/244/271 96/245/272
f 99/246/273 93/247/274 95/248/275 97/249/276
