# This file uses centimeters as units for non-parametric coordinates.

mtllib BackpackT2.mtl
g default
v -0.641261 4.871709 -0.824216
v -0.213446 4.871709 -0.824216
v 0.214368 4.871709 -0.824216
v 0.642182 4.871709 -0.824216
v -0.641261 4.871709 -0.666184
v -0.213446 4.871709 -0.666184
v 0.214368 4.871709 -0.666184
v 0.642182 4.871709 -0.666184
v -0.641261 6.597228 -0.666184
v -0.213446 6.597228 -0.666184
v 0.214368 6.597228 -0.666184
v 0.642182 6.597228 -0.666184
v -0.641261 6.597228 -0.824216
v -0.213446 6.597228 -0.824216
v 0.214368 6.597228 -0.824216
v 0.642182 6.597228 -0.824216
v -0.213446 4.649053 -0.824216
v 0.214368 4.649053 -0.824216
v 0.214368 4.649053 -0.666184
v -0.213446 4.649053 -0.666184
v -0.213446 6.819884 -0.666184
v 0.214368 6.819884 -0.666184
v 0.214368 6.819884 -0.824216
v -0.213446 6.819884 -0.824216
v -0.896905 4.063828 -0.667166
v 0.883808 4.063828 -0.667166
v -0.896905 4.063828 0.717688
v 0.883808 4.063828 0.717688
v -0.896905 6.949805 0.717688
v 0.883808 6.949805 0.717688
v -0.896905 6.949805 -0.667166
v 0.883808 6.949805 -0.667166
v 0.885090 4.313118 -0.452757
v 1.440838 4.313118 -0.452757
v 0.885090 4.313118 0.524941
v 1.440838 4.313118 0.524941
v 0.885090 5.990958 0.524941
v 1.440838 5.990958 0.524941
v 0.885090 5.990958 -0.452757
v 1.440838 5.990958 -0.452757
v -1.455203 4.313118 -0.452757
v -0.899455 4.313118 -0.452757
v -1.455203 4.313118 0.524941
v -0.899455 4.313118 0.524941
v -1.455203 5.990958 0.524941
v -0.899455 5.990958 0.524941
v -1.455203 5.990958 -0.452757
v -0.899455 5.990958 -0.452757
vt 0.452245 0.055039
vt 0.452245 0.162726
vt 0.452245 0.162726
vt 0.452245 0.055039
vt 0.499525 0.162726
vt 0.499525 0.263362
vt 0.499525 0.263362
vt 0.499525 0.162726
vt 0.452245 0.263362
vt 0.452245 0.367915
vt 0.452245 0.367915
vt 0.452245 0.263362
vt 0.067824 0.155674
vt 0.067824 0.055039
vt 0.067824 0.272764
vt 0.067824 0.367915
vt 0.067824 0.155674
vt 0.067824 0.055039
vt 0.020544 0.155674
vt 0.020544 0.272764
vt 0.020544 0.272764
vt 0.020544 0.155674
vt 0.067824 0.367915
vt 0.067824 0.272764
vt 0.634575 0.530525
vt 0.634575 0.012067
vt 0.988960 0.012067
vt 0.988960 0.530525
vt -0.000651 0.433449
vt 0.618308 0.433449
vt 0.618308 0.000725
vt -0.000651 0.000725
vt 0.639262 0.977609
vt 0.978265 0.977609
vt 0.978265 0.643910
vt 0.639262 0.643910
vt 0.004744 0.995757
vt 0.004744 0.568215
vt 0.252745 0.568215
vt 0.252745 0.995757
vt 0.297016 0.978160
vt 0.625278 0.978160
vt 0.625278 0.651884
vt 0.297016 0.651884
vt 0.252745 0.995757
vt 0.252745 0.568215
vt 0.004744 0.568215
vt 0.004744 0.995757
vt 0.625864 0.637688
vt 0.276724 0.637688
vt 0.276724 0.489122
vt 0.625864 0.489122
vt 0.625864 0.489122
vt 0.276724 0.489122
vt 0.276724 0.637688
vt 0.625864 0.637688
vt 0.862517 0.850397
vt 0.862517 0.701830
vt 0.724630 0.701830
vt 0.724630 0.850397
vt 0.625864 0.637688
vt 0.276724 0.637688
vt 0.276724 0.489121
vt 0.625864 0.489121
vt 0.725242 0.850793
vt 0.725242 0.702226
vt 0.862075 0.702226
vt 0.862075 0.850793
vt 0.625864 0.489121
vt 0.276724 0.489121
vt 0.276724 0.637688
vt 0.625864 0.637688
vt 0.625864 0.637688
vt 0.276724 0.637688
vt 0.276724 0.489122
vt 0.625864 0.489122
vt 0.625864 0.489122
vt 0.276724 0.489122
vt 0.276724 0.637688
vt 0.625864 0.637688
vt 0.862517 0.850397
vt 0.862517 0.701830
vt 0.724630 0.701830
vt 0.724630 0.850397
vt 0.625864 0.637688
vt 0.276724 0.637688
vt 0.276724 0.489121
vt 0.625864 0.489121
vt 0.725242 0.850793
vt 0.725242 0.702226
vt 0.862075 0.702226
vt 0.862075 0.850793
vt 0.625864 0.489121
vt 0.276724 0.489121
vt 0.276724 0.637688
vt 0.625864 0.637688
vn 0.000000 -1.000000 0.000000
vn 0.000000 -1.000000 0.000000
vn 0.000000 -1.000000 0.000000
vn 0.000000 -1.000000 0.000000
vn 0.000000 -1.000000 0.000000
vn 0.000000 -1.000000 0.000000
vn 0.000000 -1.000000 0.000000
vn 0.000000 -1.000000 0.000000
vn 0.000000 -1.000000 0.000000
vn 0.000000 -1.000000 0.000000
vn 0.000000 -1.000000 0.000000
vn 0.000000 -1.000000 0.000000
vn 0.000000 0.000000 1.000000
vn 0.000000 0.000000 1.000000
vn 0.000000 0.000000 1.000000
vn 0.000000 0.000000 1.000000
vn 0.000000 0.000000 1.000000
vn 0.000000 0.000000 1.000000
vn 0.000000 0.000000 1.000000
vn 0.000000 0.000000 1.000000
vn 0.000000 1.000000 0.000000
vn 0.000000 1.000000 0.000000
vn 0.000000 1.000000 0.000000
vn 0.000000 1.000000 0.000000
vn 0.000000 1.000000 0.000000
vn 0.000000 1.000000 0.000000
vn 0.000000 1.000000 0.000000
vn 0.000000 1.000000 0.000000
vn 0.000000 1.000000 0.000000
vn 0.000000 1.000000 0.000000
vn 0.000000 1.000000 0.000000
vn 0.000000 1.000000 0.000000
vn 0.000000 0.000000 -1.000000
vn 0.000000 0.000000 -1.000000
vn 0.000000 0.000000 -1.000000
vn 0.000000 0.000000 -1.000000
vn 0.000000 0.000000 -1.000000
vn 0.000000 0.000000 -1.000000
vn 0.000000 0.000000 -1.000000
vn 0.000000 0.000000 -1.000000
vn 1.000000 0.000000 0.000000
vn 1.000000 0.000000 0.000000
vn 1.000000 0.000000 0.000000
vn 1.000000 0.000000 0.000000
vn -1.000000 0.000000 0.000000
vn -1.000000 0.000000 0.000000
vn -1.000000 0.000000 0.000000
vn -1.000000 0.000000 0.000000
vn 0.000000 0.000000 -1.000000
vn 0.000000 0.000000 -1.000000
vn 1.000000 0.000000 0.000000
vn 1.000000 0.000000 0.000000
vn 1.000000 0.000000 0.000000
vn 1.000000 0.000000 0.000000
vn 0.000000 0.000000 1.000000
vn 0.000000 0.000000 1.000000
vn -1.000000 0.000000 0.000000
vn -1.000000 0.000000 0.000000
vn -1.000000 0.000000 0.000000
vn -1.000000 0.000000 0.000000
vn 0.000000 0.000000 1.000000
vn 0.000000 0.000000 1.000000
vn 1.000000 0.000000 0.000000
vn 1.000000 0.000000 0.000000
vn 1.000000 0.000000 0.000000
vn 1.000000 0.000000 0.000000
vn 0.000000 0.000000 -1.000000
vn 0.000000 0.000000 -1.000000
vn -1.000000 0.000000 0.000000
vn -1.000000 0.000000 0.000000
vn -1.000000 0.000000 0.000000
vn -1.000000 0.000000 0.000000
vn 0.000000 -1.000000 0.000000
vn 0.000000 -1.000000 0.000000
vn 0.000000 -1.000000 0.000000
vn 0.000000 -1.000000 0.000000
vn 0.000000 0.000000 1.000000
vn 0.000000 0.000000 1.000000
vn 0.000000 0.000000 1.000000
vn 0.000000 0.000000 1.000000
vn 0.000000 1.000000 0.000000
vn 0.000000 1.000000 0.000000
vn 0.000000 1.000000 0.000000
vn 0.000000 1.000000 0.000000
vn 0.000000 0.000000 -1.000000
vn 0.000000 0.000000 -1.000000
vn 0.000000 0.000000 -1.000000
vn 0.000000 0.000000 -1.000000
vn 1.000000 0.000000 0.000000
vn 1.000000 0.000000 0.000000
vn 1.000000 0.000000 0.000000
vn 1.000000 0.000000 0.000000
vn -1.000000 0.000000 0.000000
vn -1.000000 0.000000 0.000000
vn -1.000000 0.000000 0.000000
vn -1.000000 0.000000 0.000000
vn 0.000000 -1.000000 0.000000
vn 0.000000 -1.000000 0.000000
vn 0.000000 -1.000000 0.000000
vn 0.000000 -1.000000 0.000000
vn 0.000000 0.000000 1.000000
vn 0.000000 0.000000 1.000000
vn 0.000000 0.000000 1.000000
vn 0.000000 0.000000 1.000000
vn 0.000000 1.000000 0.000000
vn 0.000000 1.000000 0.000000
vn 0.000000 1.000000 0.000000
vn 0.000000 1.000000 0.000000
vn 0.000000 0.000000 -1.000000
vn 0.000000 0.000000 -1.000000
vn 0.000000 0.000000 -1.000000
vn 0.000000 0.000000 -1.000000
vn 1.000000 0.000000 0.000000
vn 1.000000 0.000000 0.000000
vn 1.000000 0.000000 0.000000
vn 1.000000 0.000000 0.000000
vn -1.000000 0.000000 0.000000
vn -1.000000 0.000000 0.000000
vn -1.000000 0.000000 0.000000
vn -1.000000 0.000000 0.000000
vn 0.000000 -1.000000 0.000000
vn 0.000000 -1.000000 0.000000
vn 0.000000 -1.000000 0.000000
vn 0.000000 -1.000000 0.000000
vn 0.000000 0.000000 1.000000
vn 0.000000 0.000000 1.000000
vn 0.000000 0.000000 1.000000
vn 0.000000 0.000000 1.000000
vn 0.000000 1.000000 0.000000
vn 0.000000 1.000000 0.000000
vn 0.000000 1.000000 0.000000
vn 0.000000 1.000000 0.000000
vn 0.000000 0.000000 -1.000000
vn 0.000000 0.000000 -1.000000
vn 0.000000 0.000000 -1.000000
vn 0.000000 0.000000 -1.000000
vn 1.000000 0.000000 0.000000
vn 1.000000 0.000000 0.000000
vn 1.000000 0.000000 0.000000
vn 1.000000 0.000000 0.000000
vn -1.000000 0.000000 0.000000
vn -1.000000 0.000000 0.000000
vn -1.000000 0.000000 0.000000
vn -1.000000 0.000000 0.000000
s off
g polySurface50
usemtl lambert4SG
f 1/1/1 2/2/2 6/3/3 5/4/4
f 17/5/5 18/6/6 19/7/7 20/8/8
f 3/9/9 4/10/10 8/11/11 7/12/12
s 1
f 5/4/13 6/3/14 10/13/15 9/14/16
f 6/3/14 7/12/17 11/15/18 10/13/15
f 7/12/17 8/11/19 12/16/20 11/15/18
s off
f 9/14/21 10/13/22 14/17/23 13/18/24
f 21/19/25 22/20/26 23/21/27 24/22/28
f 11/15/29 12/16/30 16/23/31 15/24/32
s 2
f 13/18/33 14/17/34 2/2/35 1/1/36
f 14/17/34 15/24/37 3/9/38 2/2/35
f 15/24/37 16/23/39 4/10/40 3/9/38
s off
f 4/10/41 16/23/42 12/16/43 8/11/44
f 13/18/45 1/1/46 5/4/47 9/14/48
s 2
f 2/2/35 3/9/38 18/6/49 17/5/50
s off
f 3/9/51 7/12/52 19/7/53 18/6/54
s 1
f 7/12/17 6/3/14 20/8/55 19/7/56
s off
f 6/3/57 2/2/58 17/5/59 20/8/60
s 1
f 10/13/15 11/15/18 22/20/61 21/19/62
s off
f 11/15/63 15/24/64 23/21/65 22/20/66
s 2
f 15/24/37 14/17/34 24/22/67 23/21/68
s off
f 14/17/69 10/13/70 21/19/71 24/22/72
f 25/33/73 26/34/74 28/35/75 27/36/76
f 29/25/77 27/26/78 28/27/79 30/28/80
f 29/41/81 30/42/82 32/43/83 31/44/84
f 32/29/85 26/30/86 25/31/87 31/32/88
f 30/37/89 28/38/90 26/39/91 32/40/92
f 31/45/93 25/46/94 27/47/95 29/48/96
f 33/57/97 34/58/98 36/59/99 35/60/100
f 37/61/101 35/62/102 36/63/103 38/64/104
f 37/65/105 38/66/106 40/67/107 39/68/108
f 40/69/109 34/70/110 33/71/111 39/72/112
f 38/49/113 36/50/114 34/51/115 40/52/116
f 39/53/117 33/54/118 35/55/119 37/56/120
f 41/81/121 42/82/122 44/83/123 43/84/124
f 45/85/125 43/86/126 44/87/127 46/88/128
f 45/89/129 46/90/130 48/91/131 47/92/132
f 48/93/133 42/94/134 41/95/135 47/96/136
f 46/73/137 44/74/138 42/75/139 48/76/140
f 47/77/141 41/78/142 43/79/143 45/80/144
