# This file uses centimeters as units for non-parametric coordinates.

mtllib Leanto.mtl
v -4.598772 -1.935550 -2.537447
v -4.597886 -1.935550 -2.227626
v -4.580501 0.758436 -2.517709
v -4.579728 0.758436 -2.247468
v -4.331784 0.758436 -2.518421
v -4.331011 0.758436 -2.248179
v -4.313627 -1.935550 -2.538263
v -4.312740 -1.935550 -2.228441
v -4.552854 0.070307 -2.276837
v -4.553460 0.070307 -2.488496
v -4.358658 0.070307 -2.489053
v -4.358053 0.070307 -2.277394
v -4.552854 -0.887043 -2.276837
v -4.553460 -0.887043 -2.488496
v -4.358658 -0.887043 -2.489053
v -4.358053 -0.887043 -2.277394
v -4.796935 1.123473 -2.497111
v -4.796277 1.123473 -2.266828
v -4.485106 1.123473 -2.267718
v -4.485765 1.123473 -2.498001
v -4.904411 1.565923 -2.510583
v -4.903674 1.565923 -2.252742
v -4.691162 1.565923 -2.253350
v -4.691900 1.565923 -2.511191
v -4.908357 1.929493 -2.523745
v -4.907544 1.929493 -2.239558
v -4.622400 1.929493 -2.240374
v -4.623213 1.929493 -2.524560
v -4.005519 1.147569 -2.467573
v -4.005043 1.147569 -2.300894
v -4.275680 1.147751 -2.466800
v -4.275203 1.147751 -2.300121
v -3.922601 1.580200 -2.465340
v -3.922138 1.580200 -2.303601
v -4.082501 1.580307 -2.464883
v -4.082038 1.580307 -2.303144
v -3.912693 1.935366 -2.487347
v -3.912104 1.935366 -2.281651
v -4.160257 1.935550 -2.486639
v -4.159669 1.935550 -2.280943
v -4.515865 1.137871 -2.768037
v -4.500027 1.137871 2.768636
v -4.515865 1.379415 -2.768037
v -4.500027 1.379415 2.768636
v -4.274321 1.379415 -2.768728
v -4.258483 1.379415 2.767945
v -4.274321 1.137871 -2.768728
v -4.258483 1.137871 2.767945
v -4.383469 1.160856 -1.425709
v -4.383469 1.356430 -1.425709
v -4.187895 1.356430 -1.426268
v -4.187895 1.160856 -1.426268
v -4.480226 1.160856 1.655806
v -4.480226 1.356430 1.655806
v -4.284651 1.356430 1.655246
v -4.284651 1.160856 1.655246
v -4.339062 1.187705 0.098900
v -4.339062 1.329581 0.098900
v -4.197187 1.329581 0.098495
v -4.197187 1.187705 0.098495
v -4.584956 -1.935550 2.292499
v -4.584069 -1.935550 2.602320
v -4.566685 0.758436 2.312237
v -4.565912 0.758436 2.582479
v -4.317968 0.758436 2.311525
v -4.317195 0.758436 2.581767
v -4.299811 -1.935550 2.291683
v -4.298924 -1.935550 2.601505
v -4.539038 0.070307 2.553110
v -4.539643 0.070307 2.341450
v -4.344842 0.070307 2.340893
v -4.344237 0.070307 2.552553
v -4.539038 -0.887043 2.553110
v -4.539643 -0.887043 2.341450
v -4.344842 -0.887043 2.340893
v -4.344237 -0.887043 2.552553
v -4.783119 1.123473 2.332836
v -4.782460 1.123473 2.563118
v -4.471291 1.123473 2.562228
v -4.471949 1.123473 2.331946
v -4.890595 1.565923 2.319363
v -4.889857 1.565923 2.577205
v -4.677346 1.565923 2.576597
v -4.678084 1.565923 2.318755
v -4.894541 1.929493 2.306201
v -4.893728 1.929493 2.590389
v -4.608584 1.929493 2.589573
v -4.609397 1.929493 2.305386
v -3.991703 1.147569 2.362373
v -3.991226 1.147569 2.529053
v -4.261864 1.147751 2.363146
v -4.261387 1.147751 2.529826
v -3.908785 1.580200 2.364606
v -3.908322 1.580200 2.526346
v -4.068685 1.580307 2.365063
v -4.068222 1.580307 2.526803
v -3.898876 1.935366 2.342600
v -3.898288 1.935366 2.548296
v -4.146441 1.935550 2.343308
v -4.145853 1.935550 2.549004
v -4.365912 1.285851 2.119245
v 4.365912 -1.998886 2.119245
v -4.365912 1.285851 -2.134138
v 4.365912 -1.998886 -2.134138
vt 0.937144 0.000000
vt 0.993102 0.000000
vt 0.984237 0.270855
vt 0.946009 0.270855
vt 0.130815 0.850828
vt 0.202217 0.850828
vt 0.202217 0.927077
vt 0.130815 0.927077
vt 0.946009 0.270855
vt 0.984237 0.270855
vt 0.993102 0.000000
vt 0.937144 0.000000
vt 0.130815 0.927077
vt 0.202217 0.927077
vt 0.202217 0.850829
vt 0.130815 0.850829
vt 0.106201 0.000555
vt 0.189851 0.000555
vt 0.176600 0.271410
vt 0.119453 0.271410
vt 0.189851 0.000555
vt 0.106201 0.000555
vt 0.119453 0.271410
vt 0.176600 0.271410
vt 0.946009 0.518162
vt 0.984237 0.518162
vt 0.989528 0.695923
vt 0.940718 0.695923
vt 0.176600 0.518717
vt 0.119453 0.518717
vt 0.111545 0.696478
vt 0.184508 0.696478
vt 0.940718 0.695923
vt 0.989528 0.695923
vt 0.984237 0.518162
vt 0.946009 0.518162
vt 0.119453 0.518717
vt 0.176600 0.518717
vt 0.184508 0.696478
vt 0.111545 0.696478
vt 0.985919 0.790221
vt 0.944327 0.790221
vt 0.139319 0.790776
vt 0.048034 0.790776
vt 0.202217 0.927078
vt 0.130815 0.927078
vt 0.130815 0.850828
vt 0.202217 0.850828
vt 0.048034 0.790776
vt 0.139319 0.790776
vt 0.988408 0.904517
vt 0.941838 0.904517
vt 0.078859 0.905071
vt 0.016517 0.905071
vt 0.985919 0.790221
vt 0.944327 0.790221
vt 0.941838 0.904517
vt 0.988408 0.904517
vt 0.990787 0.998436
vt 0.939459 0.998436
vt 0.099020 0.998991
vt 0.015370 0.998991
vt 0.939459 0.998436
vt 0.990787 0.998436
vt 0.202217 0.850828
vt 0.130815 0.850828
vt 0.130815 0.927077
vt 0.202217 0.927077
vt 0.950071 0.796445
vt 0.980175 0.796445
vt 0.200923 0.797047
vt 0.280178 0.797000
vt 0.980175 0.796492
vt 0.950071 0.796492
vt 0.280178 0.797000
vt 0.200923 0.797047
vt 0.950517 0.908205
vt 0.979729 0.908205
vt 0.257592 0.908787
vt 0.304501 0.908759
vt 0.979729 0.908232
vt 0.950517 0.908232
vt 0.304501 0.908759
vt 0.257592 0.908787
vt 0.946547 0.999953
vt 0.983699 0.999953
vt 0.234800 1.000555
vt 0.307426 1.000508
vt 0.983699 1.000000
vt 0.946547 1.000000
vt 0.307426 1.000508
vt 0.234800 1.000555
vt 0.860263 0.992841
vt 0.866080 0.755276
vt 0.915571 0.755276
vt 0.921388 0.992841
vt 0.787643 0.994045
vt 0.814146 0.755472
vt 0.854466 0.755472
vt 0.837440 0.994045
vt 0.921388 0.992841
vt 0.915571 0.755276
vt 0.866080 0.755276
vt 0.860263 0.992841
vt 0.837440 0.994045
vt 0.854466 0.755472
vt 0.814146 0.755472
vt 0.787643 0.994045
vt 0.130815 0.850828
vt 0.202217 0.850828
vt 0.202217 0.927077
vt 0.130815 0.927077
vt 0.202217 0.850828
vt 0.130815 0.850828
vt 0.130815 0.927077
vt 0.202217 0.927077
vt 0.872874 0.485504
vt 0.908777 0.485504
vt 0.822402 0.484557
vt 0.851651 0.484557
vt 0.908777 0.485504
vt 0.872874 0.485504
vt 0.851651 0.484557
vt 0.822402 0.484557
vt 0.866080 0.210112
vt 0.860263 0.013229
vt 0.921388 0.013228
vt 0.915571 0.210112
vt 0.832701 0.207998
vt 0.792381 0.207997
vt 0.787643 0.010280
vt 0.837440 0.010280
vt 0.866080 0.210112
vt 0.915571 0.210112
vt 0.921388 0.013228
vt 0.860263 0.013229
vt 0.792381 0.207997
vt 0.832701 0.207998
vt 0.837440 0.010280
vt 0.787643 0.010280
vt 0.937269 0.000000
vt 0.993227 0.000000
vt 0.984362 0.270855
vt 0.946133 0.270855
vt 0.130815 0.850828
vt 0.202217 0.850828
vt 0.202217 0.927077
vt 0.130815 0.927077
vt 0.946133 0.270855
vt 0.984362 0.270855
vt 0.993227 0.000000
vt 0.937269 0.000000
vt 0.130815 0.927077
vt 0.202217 0.927077
vt 0.202217 0.850829
vt 0.130815 0.850829
vt 0.106201 0.000555
vt 0.189851 0.000555
vt 0.176600 0.271410
vt 0.119453 0.271410
vt 0.189851 0.000555
vt 0.106201 0.000555
vt 0.119453 0.271410
vt 0.176600 0.271410
vt 0.946133 0.518162
vt 0.984362 0.518162
vt 0.989652 0.695923
vt 0.940843 0.695923
vt 0.176600 0.518717
vt 0.119453 0.518717
vt 0.111544 0.696478
vt 0.184508 0.696478
vt 0.940843 0.695923
vt 0.989652 0.695923
vt 0.984362 0.518162
vt 0.946133 0.518162
vt 0.119453 0.518717
vt 0.176600 0.518717
vt 0.184508 0.696478
vt 0.111544 0.696478
vt 0.986044 0.790221
vt 0.944452 0.790221
vt 0.139319 0.790776
vt 0.048034 0.790776
vt 0.202217 0.927078
vt 0.130815 0.927078
vt 0.130815 0.850828
vt 0.202217 0.850828
vt 0.048034 0.790776
vt 0.139319 0.790776
vt 0.988533 0.904517
vt 0.941963 0.904517
vt 0.078859 0.905071
vt 0.016517 0.905071
vt 0.986044 0.790221
vt 0.944452 0.790221
vt 0.941963 0.904517
vt 0.988533 0.904517
vt 0.016517 0.905071
vt 0.078859 0.905071
vt 0.990912 0.998436
vt 0.939584 0.998436
vt 0.099020 0.998991
vt 0.015370 0.998991
vt 0.939584 0.998436
vt 0.990912 0.998436
vt 0.015370 0.998991
vt 0.099020 0.998991
vt 0.950195 0.796445
vt 0.980300 0.796445
vt 0.200923 0.797047
vt 0.280178 0.797000
vt 0.980300 0.796492
vt 0.950195 0.796492
vt 0.280178 0.797000
vt 0.200923 0.797047
vt 0.950642 0.908205
vt 0.979854 0.908205
vt 0.257592 0.908787
vt 0.304501 0.908759
vt 0.979854 0.908232
vt 0.950642 0.908232
vt 0.304501 0.908759
vt 0.257592 0.908787
vt 0.946672 0.999953
vt 0.983823 0.999953
vt 0.234800 1.000555
vt 0.307426 1.000508
vt 0.983823 1.000000
vt 0.946672 1.000000
vt 0.307426 1.000508
vt 0.234800 1.000555
vt 0.283850 0.788073
vt 0.283850 0.027712
vt 0.708926 0.027712
vt 0.708926 0.788073
vn -0.999069 0.043042 0.002858
vn -0.999069 0.043042 0.002858
vn -0.999682 0.025043 0.002860
vn -0.999682 0.025043 0.002860
vn 0.000000 1.000000 0.000000
vn 0.000000 1.000000 0.000000
vn 0.000000 1.000000 0.000000
vn 0.000000 1.000000 0.000000
vn 0.999682 0.025043 -0.002860
vn 0.999682 0.025043 -0.002860
vn 0.999069 0.043042 -0.002858
vn 0.999069 0.043042 -0.002858
vn 0.000000 -1.000000 0.000000
vn 0.000000 -1.000000 0.000000
vn 0.000000 -1.000000 0.000000
vn 0.000000 -1.000000 0.000000
vn 0.002857 0.046759 0.998902
vn 0.002857 0.046759 0.998902
vn 0.002859 0.027183 0.999626
vn 0.002859 0.027183 0.999626
vn -0.002857 0.046759 -0.998902
vn -0.002857 0.046759 -0.998902
vn -0.002859 0.027183 -0.999626
vn -0.002859 0.027183 -0.999626
vn -0.999836 -0.017886 0.002860
vn -0.999836 -0.017886 0.002860
vn -0.973354 -0.229292 0.002784
vn -0.973354 -0.229292 0.002784
vn -0.002860 -0.019412 -0.999808
vn -0.002860 -0.019412 -0.999808
vn -0.002860 0.004070 -0.999988
vn 0.010524 0.020294 -0.999739
vn 0.999229 -0.039146 -0.002858
vn 0.999229 -0.039146 -0.002858
vn 0.999836 -0.017886 -0.002860
vn 0.999836 -0.017886 -0.002860
vn 0.002860 -0.019412 0.999808
vn 0.002860 -0.019412 0.999808
vn 0.016243 0.020293 0.999662
vn 0.002860 0.004070 0.999988
vn -0.999682 0.025043 0.002860
vn -0.999682 0.025043 0.002860
vn -0.999836 -0.017886 0.002860
vn -0.999836 -0.017886 0.002860
vn -0.002859 0.027183 -0.999626
vn -0.002859 0.027183 -0.999626
vn -0.002860 -0.019412 -0.999808
vn -0.002860 -0.019412 -0.999808
vn 0.999836 -0.017886 -0.002860
vn 0.999836 -0.017886 -0.002860
vn 0.999682 0.025043 -0.002860
vn 0.999682 0.025043 -0.002860
vn 0.002859 0.027183 0.999626
vn 0.002859 0.027183 0.999626
vn 0.002860 -0.019412 0.999808
vn 0.002860 -0.019412 0.999808
vn -0.973354 -0.229292 0.002784
vn -0.973354 -0.229292 0.002784
vn -0.927110 -0.374780 0.002652
vn -0.927110 -0.374780 0.002652
vn 0.002860 0.004070 0.999988
vn 0.016243 0.020293 0.999662
vn 0.018779 0.048264 0.998658
vn 0.002860 -0.002318 0.999993
vn 0.000742 1.000000 -0.000002
vn 0.000742 1.000000 -0.000002
vn 0.000742 1.000000 -0.000002
vn 0.000742 1.000000 -0.000002
vn 0.010524 0.020294 -0.999739
vn -0.002860 0.004070 -0.999988
vn -0.002860 -0.002318 -0.999993
vn 0.013065 0.048264 -0.998749
vn -0.927110 -0.374780 0.002652
vn -0.927110 -0.374780 0.002652
vn -0.991696 -0.128573 0.002837
vn -0.991696 -0.128573 0.002837
vn 0.002860 -0.002318 0.999993
vn 0.018779 0.048264 0.998658
vn 0.002859 -0.033192 0.999445
vn 0.002859 -0.033572 0.999432
vn 0.906478 0.422245 -0.002593
vn 0.906478 0.422245 -0.002593
vn 0.989399 0.145193 -0.002830
vn 0.989399 0.145193 -0.002830
vn 0.013065 0.048264 -0.998749
vn -0.002860 -0.002318 -0.999993
vn -0.002859 -0.033572 -0.999432
vn -0.002859 -0.033192 -0.999445
vn -0.991696 -0.128573 0.002837
vn -0.991696 -0.128573 0.002837
vn -0.999938 -0.010748 0.002860
vn -0.999938 -0.010748 0.002860
vn 0.002859 -0.033572 0.999432
vn 0.002859 -0.033192 0.999445
vn 0.002859 -0.036209 0.999340
vn 0.002859 -0.036209 0.999340
vn 0.989399 0.145193 -0.002830
vn 0.989399 0.145193 -0.002830
vn 0.982595 -0.185740 -0.002811
vn 0.982595 -0.185740 -0.002811
vn -0.002859 -0.033192 -0.999445
vn -0.002859 -0.033572 -0.999432
vn -0.002859 -0.036209 -0.999340
vn -0.002859 -0.036209 -0.999340
vn 0.766433 -0.642321 -0.002192
vn 0.766433 -0.642321 -0.002192
vn 0.874592 -0.484853 -0.002502
vn 0.874592 -0.484853 -0.002502
vn 0.010524 0.020294 -0.999739
vn 0.013065 0.048264 -0.998749
vn 0.040066 0.090567 -0.995084
vn 0.017060 0.045097 -0.998837
vn -0.114850 0.993383 0.000329
vn -0.114850 0.993383 0.000329
vn -0.114850 0.993383 0.000329
vn -0.114850 0.993383 0.000329
vn 0.018779 0.048264 0.998658
vn 0.016243 0.020293 0.999662
vn 0.022774 0.045097 0.998723
vn 0.045757 0.090567 0.994839
vn 0.874592 -0.484853 -0.002502
vn 0.874592 -0.484853 -0.002502
vn 0.993793 -0.111212 -0.002843
vn 0.993793 -0.111212 -0.002843
vn 0.017060 0.045097 -0.998837
vn 0.040066 0.090567 -0.995084
vn -0.002876 -0.022072 -0.999752
vn -0.002878 -0.026284 -0.999650
vn -0.913081 0.407769 0.002612
vn -0.913081 0.407769 0.002612
vn -0.992600 0.121393 0.002839
vn -0.992600 0.121393 0.002839
vn 0.045757 0.090567 0.994839
vn 0.022774 0.045097 0.998723
vn 0.002840 -0.026284 0.999650
vn 0.002844 -0.022072 0.999752
vn 0.993793 -0.111212 -0.002843
vn 0.993793 -0.111212 -0.002843
vn 0.999602 -0.028063 -0.002859
vn 0.999602 -0.028063 -0.002859
vn -0.002878 -0.026284 -0.999650
vn -0.002876 -0.022072 -0.999752
vn -0.002899 -0.061760 -0.998087
vn -0.002899 -0.061760 -0.998087
vn -0.992600 0.121393 0.002839
vn -0.992600 0.121393 0.002839
vn -0.976905 -0.213655 0.002794
vn -0.976905 -0.213655 0.002794
vn 0.002844 -0.022072 0.999752
vn 0.002840 -0.026284 0.999650
vn 0.002811 -0.061760 0.998087
vn 0.002811 -0.061760 0.998087
vn -0.995171 0.000000 0.098155
vn -0.997793 0.000000 0.066394
vn -0.997793 0.000000 0.066394
vn -0.995171 0.000000 0.098155
vn 0.000049 0.999854 0.017116
vn 0.000050 0.999850 0.017336
vn 0.000050 0.999849 0.017349
vn 0.000049 0.999854 0.017116
vn 0.997934 0.000000 -0.064246
vn 0.999493 0.000000 -0.031826
vn 0.999493 0.000000 -0.031826
vn 0.997934 0.000000 -0.064246
vn 0.000049 -0.999854 0.017116
vn 0.000050 -0.999849 0.017349
vn 0.000050 -0.999850 0.017336
vn 0.000049 -0.999854 0.017116
vn 0.002860 0.000000 0.999996
vn 0.002860 0.000000 0.999996
vn 0.002860 0.000000 0.999996
vn 0.002860 0.000000 0.999996
vn -0.002860 0.000000 -0.999996
vn -0.002860 0.000000 -0.999996
vn -0.002860 0.000000 -0.999996
vn -0.002860 0.000000 -0.999996
vn -0.997793 0.000000 0.066394
vn -0.999508 0.000000 -0.031375
vn -0.999508 0.000000 -0.031375
vn -0.997793 0.000000 0.066394
vn 0.000050 0.999849 0.017349
vn 0.000050 0.999850 0.017336
vn -0.000001 1.000000 -0.000358
vn 0.000001 1.000000 0.000383
vn 0.999493 0.000000 -0.031826
vn 0.999493 0.000000 -0.031826
vn 0.999508 0.000000 0.031380
vn 0.999508 0.000000 0.031380
vn 0.000050 -0.999850 0.017336
vn 0.000050 -0.999849 0.017349
vn 0.000001 -1.000000 0.000383
vn -0.000001 -1.000000 -0.000358
vn -0.998480 0.000000 -0.055112
vn -0.999842 0.000000 -0.017791
vn -0.999842 0.000000 -0.017791
vn -0.998480 0.000000 -0.055112
vn -0.000054 0.999822 -0.018864
vn -0.000054 0.999820 -0.018947
vn -0.000059 0.999787 -0.020651
vn -0.000059 0.999787 -0.020651
vn 0.999849 0.000000 0.017385
vn 0.999849 0.000000 0.017385
vn 0.999724 0.000000 -0.023511
vn 0.999724 0.000000 -0.023511
vn -0.000054 -0.999820 -0.018947
vn -0.000054 -0.999822 -0.018864
vn -0.000059 -0.999787 -0.020651
vn -0.000059 -0.999787 -0.020651
vn -0.999508 0.000000 -0.031375
vn -0.998480 0.000000 -0.055112
vn -0.998480 0.000000 -0.055112
vn -0.999508 0.000000 -0.031375
vn 0.000001 1.000000 0.000383
vn -0.000001 1.000000 -0.000358
vn -0.000054 0.999820 -0.018947
vn -0.000054 0.999822 -0.018864
vn 0.999508 0.000000 0.031380
vn 0.999508 0.000000 0.031380
vn 0.999849 0.000000 0.017385
vn 0.999849 0.000000 0.017385
vn -0.000001 -1.000000 -0.000358
vn 0.000001 -1.000000 0.000383
vn -0.000054 -0.999822 -0.018864
vn -0.000054 -0.999820 -0.018947
vn -0.999069 0.043042 0.002858
vn -0.999069 0.043042 0.002858
vn -0.999682 0.025043 0.002860
vn -0.999682 0.025043 0.002860
vn 0.000000 1.000000 0.000000
vn 0.000000 1.000000 0.000000
vn 0.000000 1.000000 0.000000
vn 0.000000 1.000000 0.000000
vn 0.999682 0.025043 -0.002860
vn 0.999682 0.025043 -0.002860
vn 0.999069 0.043042 -0.002858
vn 0.999069 0.043042 -0.002858
vn 0.000000 -1.000000 0.000000
vn 0.000000 -1.000000 0.000000
vn 0.000000 -1.000000 0.000000
vn 0.000000 -1.000000 0.000000
vn 0.002857 0.046760 0.998902
vn 0.002857 0.046760 0.998902
vn 0.002859 0.027183 0.999626
vn 0.002859 0.027183 0.999626
vn -0.002857 0.046760 -0.998902
vn -0.002857 0.046760 -0.998902
vn -0.002859 0.027183 -0.999626
vn -0.002859 0.027183 -0.999626
vn -0.999836 -0.017886 0.002860
vn -0.999836 -0.017886 0.002860
vn -0.973354 -0.229292 0.002784
vn -0.973354 -0.229292 0.002784
vn -0.002860 -0.019412 -0.999808
vn -0.002860 -0.019412 -0.999808
vn -0.002860 0.004070 -0.999988
vn 0.010523 0.020294 -0.999739
vn 0.999229 -0.039146 -0.002858
vn 0.999229 -0.039146 -0.002858
vn 0.999836 -0.017886 -0.002860
vn 0.999836 -0.017886 -0.002860
vn 0.002860 -0.019412 0.999808
vn 0.002860 -0.019412 0.999808
vn 0.016243 0.020293 0.999662
vn 0.002860 0.004070 0.999988
vn -0.999682 0.025043 0.002860
vn -0.999682 0.025043 0.002860
vn -0.999836 -0.017886 0.002860
vn -0.999836 -0.017886 0.002860
vn -0.002859 0.027183 -0.999626
vn -0.002859 0.027183 -0.999626
vn -0.002860 -0.019412 -0.999808
vn -0.002860 -0.019412 -0.999808
vn 0.999836 -0.017886 -0.002860
vn 0.999836 -0.017886 -0.002860
vn 0.999682 0.025043 -0.002860
vn 0.999682 0.025043 -0.002860
vn 0.002859 0.027183 0.999626
vn 0.002859 0.027183 0.999626
vn 0.002860 -0.019412 0.999808
vn 0.002860 -0.019412 0.999808
vn -0.973354 -0.229292 0.002784
vn -0.973354 -0.229292 0.002784
vn -0.927110 -0.374780 0.002652
vn -0.927110 -0.374780 0.002652
vn 0.002860 0.004070 0.999988
vn 0.016243 0.020293 0.999662
vn 0.018779 0.048263 0.998658
vn 0.002860 -0.002318 0.999993
vn 0.000742 1.000000 -0.000002
vn 0.000742 1.000000 -0.000002
vn 0.000742 1.000000 -0.000002
vn 0.000742 1.000000 -0.000002
vn 0.010523 0.020294 -0.999739
vn -0.002860 0.004070 -0.999988
vn -0.002860 -0.002318 -0.999993
vn 0.013065 0.048264 -0.998749
vn -0.927110 -0.374780 0.002652
vn -0.927110 -0.374780 0.002652
vn -0.991696 -0.128573 0.002837
vn -0.991696 -0.128573 0.002837
vn 0.002860 -0.002318 0.999993
vn 0.018779 0.048263 0.998658
vn 0.002859 -0.033192 0.999445
vn 0.002859 -0.033572 0.999432
vn 0.906478 0.422246 -0.002593
vn 0.906478 0.422246 -0.002593
vn 0.989399 0.145194 -0.002830
vn 0.989399 0.145194 -0.002830
vn 0.013065 0.048264 -0.998749
vn -0.002860 -0.002318 -0.999993
vn -0.002859 -0.033572 -0.999432
vn -0.002859 -0.033192 -0.999445
vn -0.991696 -0.128573 0.002837
vn -0.991696 -0.128573 0.002837
vn -0.999938 -0.010748 0.002860
vn -0.999938 -0.010748 0.002860
vn 0.002859 -0.033572 0.999432
vn 0.002859 -0.033192 0.999445
vn 0.002859 -0.036209 0.999340
vn 0.002859 -0.036209 0.999340
vn 0.989399 0.145194 -0.002830
vn 0.989399 0.145194 -0.002830
vn 0.982595 -0.185740 -0.002811
vn 0.982595 -0.185740 -0.002811
vn -0.002859 -0.033192 -0.999445
vn -0.002859 -0.033572 -0.999432
vn -0.002859 -0.036209 -0.999340
vn -0.002859 -0.036209 -0.999340
vn 0.766434 -0.642320 -0.002192
vn 0.766434 -0.642320 -0.002192
vn 0.874593 -0.484852 -0.002502
vn 0.874593 -0.484852 -0.002502
vn 0.010523 0.020294 -0.999739
vn 0.013065 0.048264 -0.998749
vn 0.040065 0.090567 -0.995084
vn 0.017060 0.045097 -0.998837
vn -0.114850 0.993383 0.000329
vn -0.114850 0.993383 0.000329
vn -0.114850 0.993383 0.000329
vn -0.114850 0.993383 0.000329
vn 0.018779 0.048263 0.998658
vn 0.016243 0.020293 0.999662
vn 0.022774 0.045097 0.998723
vn 0.045757 0.090566 0.994839
vn 0.874593 -0.484852 -0.002502
vn 0.874593 -0.484852 -0.002502
vn 0.993793 -0.111212 -0.002843
vn 0.993793 -0.111212 -0.002843
vn 0.017060 0.045097 -0.998837
vn 0.040065 0.090567 -0.995084
vn -0.002876 -0.022072 -0.999752
vn -0.002878 -0.026284 -0.999650
vn -0.913081 0.407770 0.002612
vn -0.913081 0.407770 0.002612
vn -0.992600 0.121393 0.002839
vn -0.992600 0.121393 0.002839
vn 0.045757 0.090566 0.994839
vn 0.022774 0.045097 0.998723
vn 0.002840 -0.026284 0.999650
vn 0.002844 -0.022072 0.999752
vn 0.993793 -0.111212 -0.002843
vn 0.993793 -0.111212 -0.002843
vn 0.999602 -0.028063 -0.002859
vn 0.999602 -0.028063 -0.002859
vn -0.002878 -0.026284 -0.999650
vn -0.002876 -0.022072 -0.999752
vn -0.002899 -0.061759 -0.998087
vn -0.002899 -0.061759 -0.998087
vn -0.992600 0.121393 0.002839
vn -0.992600 0.121393 0.002839
vn -0.976905 -0.213656 0.002794
vn -0.976905 -0.213656 0.002794
vn 0.002844 -0.022072 0.999752
vn 0.002840 -0.026284 0.999650
vn 0.002811 -0.061761 0.998087
vn 0.002811 -0.061761 0.998087
vn 0.000000 1.000000 0.000000
vn 0.000000 1.000000 0.000000
vn 0.000000 1.000000 0.000000
vn 0.000000 1.000000 0.000000
s off
usemtl lambert4SG
f 1/1/1 2/2/2 13/3/3 14/4/4
f 25/5/5 26/6/6 27/7/7 28/8/8
f 15/9/9 16/10/10 8/11/11 7/12/12
f 7/13/13 8/14/14 2/15/15 1/16/16
f 2/17/17 8/18/18 16/19/19 13/20/20
f 7/21/21 1/22/22 14/23/23 15/24/24
f 10/25/25 9/26/26 4/27/27 3/28/28
f 11/29/29 10/30/30 3/31/31 5/32/32
f 5/33/33 6/34/34 12/35/35 11/36/36
f 9/37/37 12/38/38 6/39/39 4/40/40
f 14/4/41 13/3/42 9/26/43 10/25/44
f 15/24/45 14/23/46 10/30/47 11/29/48
f 11/36/49 12/35/50 16/10/51 15/9/52
f 13/20/53 16/19/54 12/38/55 9/37/56
f 3/28/57 4/27/58 18/41/59 17/42/60
f 4/40/61 6/39/62 19/43/63 18/44/64
f 38/45/65 37/46/66 39/47/67 40/48/68
f 5/32/69 3/31/70 17/49/71 20/50/72
f 17/42/73 18/41/74 22/51/75 21/52/76
f 18/44/77 19/43/78 23/53/79 22/54/80
f 19/55/81 20/56/82 24/57/83 23/58/84
f 20/56/85 17/42/86 21/52/87 24/57/88
f 21/52/89 22/51/90 26/59/91 25/60/92
f 22/54/93 23/53/94 27/61/95 26/62/96
f 23/58/97 24/57/98 28/63/99 27/64/100
f 24/65/101 21/66/102 25/67/103 28/68/104
f 6/34/105 5/33/106 29/69/107 30/70/108
f 5/32/109 20/50/110 31/71/111 29/72/112
f 20/56/113 19/55/114 32/73/115 31/74/116
f 19/43/117 6/39/118 30/75/119 32/76/120
f 30/70/121 29/69/122 33/77/123 34/78/124
f 29/72/125 31/71/126 35/79/127 33/80/128
f 31/74/129 32/73/130 36/81/131 35/82/132
f 32/76/133 30/75/134 34/83/135 36/84/136
f 34/78/137 33/77/138 37/85/139 38/86/140
f 33/80/141 35/79/142 39/87/143 37/88/144
f 35/82/145 36/81/146 40/89/147 39/90/148
f 36/84/149 34/83/150 38/91/151 40/92/152
f 41/93/153 49/94/154 50/95/155 43/96/156
f 43/97/157 50/98/158 51/99/159 45/100/160
f 45/101/161 51/102/162 52/103/163 47/104/164
f 47/105/165 52/106/166 49/107/167 41/108/168
f 42/109/169 48/110/170 46/111/171 44/112/172
f 47/113/173 41/114/174 43/115/175 45/116/176
f 49/94/177 57/117/178 58/118/179 50/95/180
f 51/99/181 50/98/182 58/119/183 59/120/184
f 52/103/185 51/102/186 59/121/187 60/122/188
f 49/107/189 52/106/190 60/123/191 57/124/192
f 53/125/193 42/126/194 44/127/195 54/128/196
f 55/129/197 54/130/198 44/131/199 46/132/200
f 56/133/201 55/134/202 46/135/203 48/136/204
f 53/137/205 56/138/206 48/139/207 42/140/208
f 57/117/209 53/125/210 54/128/211 58/118/212
f 59/120/213 58/119/214 54/130/215 55/129/216
f 60/122/217 59/121/218 55/134/219 56/133/220
f 57/124/221 60/123/222 56/138/223 53/137/224
f 61/141/225 62/142/226 73/143/227 74/144/228
f 85/145/229 86/146/230 87/147/231 88/148/232
f 75/149/233 76/150/234 68/151/235 67/152/236
f 67/153/237 68/154/238 62/155/239 61/156/240
f 62/157/241 68/158/242 76/159/243 73/160/244
f 67/161/245 61/162/246 74/163/247 75/164/248
f 70/165/249 69/166/250 64/167/251 63/168/252
f 71/169/253 70/170/254 63/171/255 65/172/256
f 65/173/257 66/174/258 72/175/259 71/176/260
f 69/177/261 72/178/262 66/179/263 64/180/264
f 74/144/265 73/143/266 69/166/267 70/165/268
f 75/164/269 74/163/270 70/170/271 71/169/272
f 71/176/273 72/175/274 76/150/275 75/149/276
f 73/160/277 76/159/278 72/178/279 69/177/280
f 63/168/281 64/167/282 78/181/283 77/182/284
f 64/180/285 66/179/286 79/183/287 78/184/288
f 98/185/289 97/186/290 99/187/291 100/188/292
f 65/172/293 63/171/294 77/189/295 80/190/296
f 77/182/297 78/181/298 82/191/299 81/192/300
f 78/184/301 79/183/302 83/193/303 82/194/304
f 79/195/305 80/196/306 84/197/307 83/198/308
f 80/190/309 77/189/310 81/199/311 84/200/312
f 81/192/313 82/191/314 86/201/315 85/202/316
f 82/194/317 83/193/318 87/203/319 86/204/320
f 83/198/321 84/197/322 88/205/323 87/206/324
f 84/200/325 81/199/326 85/207/327 88/208/328
f 66/174/329 65/173/330 89/209/331 90/210/332
f 65/172/333 80/190/334 91/211/335 89/212/336
f 80/196/337 79/195/338 92/213/339 91/214/340
f 79/183/341 66/179/342 90/215/343 92/216/344
f 90/210/345 89/209/346 93/217/347 94/218/348
f 89/212/349 91/211/350 95/219/351 93/220/352
f 91/214/353 92/213/354 96/221/355 95/222/356
f 92/216/357 90/215/358 94/223/359 96/224/360
f 94/218/361 93/217/362 97/225/363 98/226/364
f 93/220/365 95/219/366 99/227/367 97/228/368
f 95/222/369 96/221/370 100/229/371 99/230/372
f 96/224/373 94/223/374 98/231/375 100/232/376
f 101/233/377 102/234/378 104/235/379 103/236/380
